…
# check for duplicates
duplicated_list <- movies %>% 
                   group_by(title) %>% 
                   filter(n()>1)

duplicated_list

## # A tibble: 107 x 11
## # Groups:   title [53]
##    title genre director  year duration  gross budget cast_facebook_l…  votes
##    <chr> <chr> <chr>    <int>    <int>  <int>  <int>            <int>  <int>
##  1 Spid… Acti… Sam Rai…  2007      156 3.37e8 2.58e8            46055 383056
##  2 Spid… Acti… Sam Rai…  2007      156 3.37e8 2.58e8            46055 383071
##  3 Alic… Adve… Tim Bur…  2010      108 3.34e8 2.00e8            79957 306320
##  4 Alic… Adve… Tim Bur…  2010      108 3.34e8 2.00e8            79957 306336
##  5 Oz t… Adve… Sam Rai…  2013      130 2.35e8 2.15e8            73441 175409
##  6 Oz t… Adve… Sam Rai…  2013      130 2.35e8 2.15e8            73441 175413
##  7 Cind… Drama Kenneth…  2015      105 2.01e8 9.50e7             4671 103737
##  8 Cind… Drama Kenneth…  2015      105 2.01e8 9.50e7             4671 103749
##  9 Twil… Drama Catheri…  2008      122 1.91e8 3.70e7            44061 348010
## 10 Twil… Drama Catheri…  2008      122 1.91e8 3.70e7            44060 348007
## # … with 97 more rows, and 2 more variables: reviews <int>, rating <dbl>
…
Create a dataframe and assign it to a new object, where you summarise monthly returns since 2017-01-01 for each of the stocks and SPY; min, max, median, mean, SD.

returns2017 <- myStocks_returns_monthly %>% 
               filter(date>="2017-01-01") %>% 
               dplyr::summarise(min = min(monthly_returns), #
                                max = max(monthly_returns), 
                                mean = mean(monthly_returns), 
                                median = median(monthly_returns), 
                                sd = sd(monthly_returns)) %>% 
               arrange(desc(median))
  
returns2017

## # A tibble: 31 x 6
##    symbol     min   max    mean median     sd
##    <chr>    <dbl> <dbl>   <dbl>  <dbl>  <dbl>
##  1 AAPL   -0.181  0.200 0.0387  0.0513 0.0873
##  2 DOW    -0.276  0.255 0.00898 0.0456 0.128 
##  3 CRM    -0.155  0.391 0.0350  0.0403 0.0850
##  4 CAT    -0.199  0.138 0.0151  0.0318 0.0742
##  5 MSFT   -0.0840 0.136 0.0327  0.0288 0.0503
##  6 V      -0.114  0.135 0.0253  0.0281 0.0520
##  7 NKE    -0.119  0.153 0.0213  0.0271 0.0672
##  8 WMT    -0.156  0.117 0.0196  0.0257 0.0535
##  9 HD     -0.151  0.177 0.0213  0.0252 0.0626
## 10 BA     -0.458  0.257 0.0124  0.0250 0.120 
## # … with 21 more rows

returns2000 <- myStocks_returns_monthly %>% 
               dplyr::summarise(min = min(monthly_returns), #
                                max = max(monthly_returns), 
                                mean = mean(monthly_returns), 
                                median = median(monthly_returns), 
                                sd = sd(monthly_returns)) %>% 
               arrange(desc(median))

returns2000

## # A tibble: 31 x 6
##    symbol    min   max    mean median     sd
##    <chr>   <dbl> <dbl>   <dbl>  <dbl>  <dbl>
##  1 DOW    -0.276 0.255 0.00898 0.0456 0.128 
##  2 AAPL   -0.577 0.454 0.0275  0.0352 0.116 
##  3 V      -0.196 0.338 0.0210  0.0256 0.0650
##  4 UNH    -0.306 0.266 0.0189  0.0232 0.0707
##  5 NKE    -0.375 0.435 0.0198  0.0232 0.0781
##  6 CRM    -0.360 0.403 0.0276  0.0205 0.113 
##  7 BA     -0.458 0.257 0.0120  0.0179 0.0887
##  8 MSFT   -0.344 0.408 0.0108  0.0171 0.0835
##  9 HON    -0.384 0.511 0.0101  0.0157 0.0833
## 10 GS     -0.275 0.312 0.00864 0.0154 0.0924
## # … with 21 more rows
…
