…
exp_hiv <- left_join(hiv_long,life_exp_long,by = c("country","Year"))
exp_hiv$Year <- as.numeric(exp_hiv$Year)

exp_hiv_worldbank <- left_join(worldbank_new, exp_hiv,by = c("country","Year"), na.rm = TRUE)
exp_hiv_worldbank$region = countrycode(exp_hiv_worldbank$iso3c,origin = "iso3c", destination = "region")

exp_hiv_worldbank

## # A tibble: 12,369 x 12
##    iso2c iso3c country  Year GDP_per_Capita School_Enrollme… Mortality_Rate
##    <chr> <chr> <chr>   <dbl>          <dbl>            <dbl>          <dbl>
##  1 AW    ABW   Aruba    1960             NA               NA             NA
##  2 AW    ABW   Aruba    1961             NA               NA             NA
##  3 AW    ABW   Aruba    1962             NA               NA             NA
##  4 AW    ABW   Aruba    1963             NA               NA             NA
##  5 AW    ABW   Aruba    1964             NA               NA             NA
##  6 AW    ABW   Aruba    1965             NA               NA             NA
##  7 AW    ABW   Aruba    1966             NA               NA             NA
##  8 AW    ABW   Aruba    1967             NA               NA             NA
##  9 AW    ABW   Aruba    1968             NA               NA             NA
## 10 AW    ABW   Aruba    1969             NA               NA             NA
## # … with 12,359 more rows, and 5 more variables: Fertility_Rate <dbl>,
## #   Infection_100_People <dbl>, Infection_Rate <dbl>, Life_Expectancy <dbl>,
## #   region <chr>
…
